info face=ozzo_font size=40 bold=0 italic=0 charset= unicode= stretchH=100 smooth=1 aa=1 padding=2,2,2,2 spacing=0,0 outline=0
common lineHeight=46 base=34 scaleW=1024 scaleH=64 pages=1 packed=0
page id=0 file="ozzo_font.png"
chars count=100
char id=97 x=2 y=2 width=23 height=30 xoffset=-1 yoffset=5 xadvance=23 page=0 chnl=15
char id=98 x=27 y=2 width=23 height=30 xoffset=-1 yoffset=6 xadvance=23 page=0 chnl=15
char id=99 x=52 y=2 width=23 height=30 xoffset=-1 yoffset=6 xadvance=23 page=0 chnl=15
char id=100 x=77 y=2 width=24 height=30 xoffset=-2 yoffset=6 xadvance=23 page=0 chnl=15
char id=101 x=103 y=2 width=24 height=30 xoffset=-1 yoffset=6 xadvance=23 page=0 chnl=15
char id=102 x=129 y=2 width=24 height=30 xoffset=-1 yoffset=5 xadvance=23 page=0 chnl=15
char id=103 x=155 y=2 width=25 height=30 xoffset=-2 yoffset=5 xadvance=23 page=0 chnl=15
char id=104 x=182 y=2 width=24 height=30 xoffset=-1 yoffset=5 xadvance=23 page=0 chnl=15
char id=105 x=208 y=2 width=8 height=36 xoffset=-1 yoffset=0 xadvance=7 page=0 chnl=15
char id=106 x=218 y=2 width=24 height=30 xoffset=-1 yoffset=6 xadvance=23 page=0 chnl=15
char id=107 x=244 y=2 width=24 height=30 xoffset=-1 yoffset=6 xadvance=23 page=0 chnl=15
char id=108 x=270 y=2 width=25 height=30 xoffset=-2 yoffset=6 xadvance=23 page=0 chnl=15
char id=109 x=297 y=2 width=39 height=30 xoffset=-1 yoffset=5 xadvance=38 page=0 chnl=15
char id=110 x=338 y=2 width=23 height=30 xoffset=-1 yoffset=5 xadvance=23 page=0 chnl=15
char id=111 x=363 y=2 width=23 height=30 xoffset=-1 yoffset=5 xadvance=23 page=0 chnl=15
char id=112 x=388 y=2 width=24 height=30 xoffset=-2 yoffset=6 xadvance=23 page=0 chnl=15
char id=113 x=414 y=2 width=24 height=30 xoffset=-2 yoffset=5 xadvance=23 page=0 chnl=15
char id=114 x=440 y=2 width=23 height=30 xoffset=-1 yoffset=5 xadvance=23 page=0 chnl=15
char id=115 x=465 y=2 width=23 height=30 xoffset=-1 yoffset=5 xadvance=23 page=0 chnl=15
char id=116 x=490 y=2 width=23 height=30 xoffset=-1 yoffset=5 xadvance=23 page=0 chnl=15
char id=117 x=515 y=2 width=24 height=30 xoffset=-1 yoffset=6 xadvance=23 page=0 chnl=15
char id=118 x=541 y=2 width=24 height=30 xoffset=-2 yoffset=5 xadvance=23 page=0 chnl=15
char id=119 x=567 y=2 width=40 height=30 xoffset=-2 yoffset=6 xadvance=38 page=0 chnl=15
char id=120 x=609 y=2 width=24 height=30 xoffset=-1 yoffset=5 xadvance=23 page=0 chnl=15
char id=121 x=635 y=2 width=23 height=30 xoffset=-1 yoffset=6 xadvance=23 page=0 chnl=15
char id=122 x=660 y=2 width=23 height=30 xoffset=-1 yoffset=5 xadvance=23 page=0 chnl=15
char id=65 x=685 y=2 width=0 height=0 xoffset=0 yoffset=34 xadvance=27 page=0 chnl=15
char id=66 x=685 y=2 width=0 height=0 xoffset=0 yoffset=34 xadvance=27 page=0 chnl=15
char id=67 x=685 y=2 width=0 height=0 xoffset=0 yoffset=34 xadvance=27 page=0 chnl=15
char id=68 x=685 y=2 width=0 height=0 xoffset=0 yoffset=34 xadvance=27 page=0 chnl=15
char id=69 x=685 y=2 width=0 height=0 xoffset=0 yoffset=34 xadvance=27 page=0 chnl=15
char id=70 x=685 y=2 width=0 height=0 xoffset=0 yoffset=34 xadvance=28 page=0 chnl=15
char id=71 x=685 y=2 width=0 height=0 xoffset=0 yoffset=34 xadvance=27 page=0 chnl=15
char id=72 x=685 y=2 width=0 height=0 xoffset=0 yoffset=34 xadvance=27 page=0 chnl=15
char id=73 x=685 y=2 width=0 height=0 xoffset=0 yoffset=34 xadvance=8 page=0 chnl=15
char id=74 x=685 y=2 width=0 height=0 xoffset=0 yoffset=34 xadvance=27 page=0 chnl=15
char id=75 x=685 y=2 width=0 height=0 xoffset=0 yoffset=34 xadvance=27 page=0 chnl=15
char id=76 x=685 y=2 width=0 height=0 xoffset=0 yoffset=34 xadvance=28 page=0 chnl=15
char id=77 x=685 y=2 width=0 height=0 xoffset=0 yoffset=34 xadvance=46 page=0 chnl=15
char id=78 x=685 y=2 width=0 height=0 xoffset=0 yoffset=34 xadvance=27 page=0 chnl=15
char id=79 x=685 y=2 width=0 height=0 xoffset=0 yoffset=34 xadvance=27 page=0 chnl=15
char id=80 x=685 y=2 width=0 height=0 xoffset=0 yoffset=34 xadvance=27 page=0 chnl=15
char id=81 x=685 y=2 width=0 height=0 xoffset=0 yoffset=34 xadvance=27 page=0 chnl=15
char id=82 x=685 y=2 width=0 height=0 xoffset=0 yoffset=34 xadvance=27 page=0 chnl=15
char id=83 x=685 y=2 width=0 height=0 xoffset=0 yoffset=34 xadvance=27 page=0 chnl=15
char id=84 x=685 y=2 width=0 height=0 xoffset=0 yoffset=34 xadvance=27 page=0 chnl=15
char id=85 x=685 y=2 width=0 height=0 xoffset=0 yoffset=34 xadvance=27 page=0 chnl=15
char id=86 x=685 y=2 width=0 height=0 xoffset=0 yoffset=34 xadvance=27 page=0 chnl=15
char id=87 x=685 y=2 width=0 height=0 xoffset=0 yoffset=34 xadvance=46 page=0 chnl=15
char id=88 x=685 y=2 width=0 height=0 xoffset=0 yoffset=34 xadvance=27 page=0 chnl=15
char id=89 x=685 y=2 width=0 height=0 xoffset=0 yoffset=34 xadvance=27 page=0 chnl=15
char id=90 x=685 y=2 width=0 height=0 xoffset=0 yoffset=34 xadvance=27 page=0 chnl=15
char id=33 x=685 y=2 width=0 height=0 xoffset=0 yoffset=34 xadvance=8 page=0 chnl=15
char id=8470 x=685 y=2 width=0 height=0 xoffset=0 yoffset=34 xadvance=44 page=0 chnl=15
char id=59 x=685 y=2 width=0 height=0 xoffset=0 yoffset=34 xadvance=8 page=0 chnl=15
char id=37 x=685 y=2 width=0 height=0 xoffset=0 yoffset=34 xadvance=28 page=0 chnl=15
char id=58 x=685 y=2 width=0 height=0 xoffset=0 yoffset=34 xadvance=8 page=0 chnl=15
char id=63 x=685 y=2 width=0 height=0 xoffset=0 yoffset=34 xadvance=24 page=0 chnl=15
char id=42 x=685 y=2 width=0 height=0 xoffset=0 yoffset=34 xadvance=10 page=0 chnl=15
char id=40 x=685 y=2 width=0 height=0 xoffset=0 yoffset=34 xadvance=14 page=0 chnl=15
char id=41 x=685 y=2 width=0 height=0 xoffset=0 yoffset=34 xadvance=14 page=0 chnl=15
char id=95 x=685 y=2 width=0 height=0 xoffset=0 yoffset=34 xadvance=22 page=0 chnl=15
char id=43 x=685 y=2 width=0 height=0 xoffset=0 yoffset=34 xadvance=30 page=0 chnl=15
char id=45 x=685 y=2 width=0 height=0 xoffset=0 yoffset=34 xadvance=18 page=0 chnl=15
char id=61 x=685 y=2 width=0 height=0 xoffset=0 yoffset=34 xadvance=18 page=0 chnl=15
char id=46 x=685 y=2 width=0 height=0 xoffset=0 yoffset=34 xadvance=8 page=0 chnl=15
char id=44 x=685 y=2 width=0 height=0 xoffset=0 yoffset=34 xadvance=8 page=0 chnl=15
char id=47 x=685 y=2 width=0 height=0 xoffset=0 yoffset=34 xadvance=16 page=0 chnl=15
char id=124 x=685 y=2 width=0 height=0 xoffset=0 yoffset=34 xadvance=20 page=0 chnl=15
char id=34 x=685 y=2 width=0 height=0 xoffset=0 yoffset=34 xadvance=13 page=0 chnl=15
char id=39 x=685 y=2 width=0 height=0 xoffset=0 yoffset=34 xadvance=7 page=0 chnl=15
char id=64 x=685 y=2 width=0 height=0 xoffset=0 yoffset=34 xadvance=23 page=0 chnl=15
char id=35 x=685 y=2 width=0 height=0 xoffset=0 yoffset=34 xadvance=25 page=0 chnl=15
char id=36 x=685 y=2 width=0 height=0 xoffset=0 yoffset=34 xadvance=23 page=0 chnl=15
char id=94 x=685 y=2 width=0 height=0 xoffset=0 yoffset=34 xadvance=20 page=0 chnl=15
char id=38 x=685 y=2 width=0 height=0 xoffset=0 yoffset=34 xadvance=33 page=0 chnl=15
char id=123 x=685 y=2 width=0 height=0 xoffset=0 yoffset=34 xadvance=20 page=0 chnl=15
char id=125 x=685 y=2 width=0 height=0 xoffset=0 yoffset=34 xadvance=20 page=0 chnl=15
char id=91 x=685 y=2 width=0 height=0 xoffset=0 yoffset=34 xadvance=15 page=0 chnl=15
char id=93 x=685 y=2 width=0 height=0 xoffset=0 yoffset=34 xadvance=15 page=0 chnl=15
char id=233 x=685 y=2 width=0 height=0 xoffset=0 yoffset=34 xadvance=23 page=0 chnl=15
char id=232 x=685 y=2 width=0 height=0 xoffset=0 yoffset=34 xadvance=18 page=0 chnl=15
char id=224 x=685 y=2 width=0 height=0 xoffset=0 yoffset=34 xadvance=18 page=0 chnl=15
char id=235 x=685 y=2 width=0 height=0 xoffset=0 yoffset=34 xadvance=18 page=0 chnl=15
char id=228 x=685 y=2 width=0 height=0 xoffset=0 yoffset=34 xadvance=18 page=0 chnl=15
char id=239 x=685 y=2 width=0 height=0 xoffset=0 yoffset=34 xadvance=10 page=0 chnl=15
char id=226 x=685 y=2 width=0 height=0 xoffset=0 yoffset=34 xadvance=18 page=0 chnl=15
char id=234 x=685 y=2 width=0 height=0 xoffset=0 yoffset=34 xadvance=18 page=0 chnl=15
char id=238 x=685 y=2 width=0 height=0 xoffset=0 yoffset=34 xadvance=10 page=0 chnl=15
char id=249 x=685 y=2 width=0 height=0 xoffset=0 yoffset=34 xadvance=21 page=0 chnl=15
char id=48 x=685 y=2 width=0 height=0 xoffset=0 yoffset=34 xadvance=23 page=0 chnl=15
char id=49 x=685 y=2 width=0 height=0 xoffset=0 yoffset=34 xadvance=13 page=0 chnl=15
char id=50 x=685 y=2 width=0 height=0 xoffset=0 yoffset=34 xadvance=23 page=0 chnl=15
char id=51 x=685 y=2 width=0 height=0 xoffset=0 yoffset=34 xadvance=23 page=0 chnl=15
char id=52 x=685 y=2 width=0 height=0 xoffset=0 yoffset=34 xadvance=23 page=0 chnl=15
char id=53 x=685 y=2 width=0 height=0 xoffset=0 yoffset=34 xadvance=23 page=0 chnl=15
char id=54 x=685 y=2 width=0 height=0 xoffset=0 yoffset=34 xadvance=23 page=0 chnl=15
char id=55 x=685 y=2 width=0 height=0 xoffset=0 yoffset=34 xadvance=23 page=0 chnl=15
char id=56 x=685 y=2 width=0 height=0 xoffset=0 yoffset=34 xadvance=23 page=0 chnl=15
char id=57 x=685 y=2 width=0 height=0 xoffset=0 yoffset=34 xadvance=23 page=0 chnl=15
char id=32 x=0 y=0 width=0 height=0 xoffset=0 yoffset=34 xadvance=10 page=0 chnl=15